PositionSensor.csv

#Digilent WaveForms Oscilloscope Acquisition,,
#Device Name: Discovery2,,
#Serial Number: SN:210321A1A159,,
#Date Time: 2021-04-06 15:43:00.687,,
#Sample rate: 4000Hz,,
#Samples: 8000,,
#Trigger: Source: Channel 2 Type: Edge Condition: Rising Level: 200 mV Hyst.: Auto HoldOff: 0 s,,
#Channel 2: Range: 500 mV/div Offset: -1 V,,
#Math 1: Function: -1*C1,,
,,
Time (s),Channel 2 (V),Math 1 (V)
-0.2,1.031452267,-14.07659534
-0.19975,1.034810839,-14.06314496
-0.1995,1.034810839,-14.05641978
-0.19925,1.041527984,-14.05305718
-0.199,1.041527984,-14.03960681
-0.19875,1.041527984,-14.01270606
-0.1985,1.038169412,-13.9420916
-0.19825,1.034810839,-13.89165269
-0.198,1.038169412,-13.87820232
-0.19775,1.034810839,-13.86475195
-0.1975,1.034810839,-13.85466417
-0.19725,1.038169412,-13.84457638
-0.197,1.034810839,-13.82776342
-0.19675,1.034810839,-13.81431304
-0.1965,1.038169412,-13.79750008
-0.19625,1.034810839,-13.7874123
-0.196,1.038169412,3.33155132
-0.19575,1.038169412,3.341639101
-0.1955,1.038169412,3.355089475
-0.19525,1.038169412,3.361814662
-0.195,1.038169412,3.365177256
-0.19475,1.034810839,3.375265036
-0.1945,1.034810839,3.385352817
-0.19425,1.034810839,3.392078004
-0.194,1.041527984,3.402165784
-0.19375,1.038169412,3.408890971
-0.1935,1.031452267,3.439154313
-0.19325,1.031452267,3.449242094
-0.193,1.028093694,3.455967281
-0.19275,1.028093694,3.452604687
-0.1925,1.028093694,3.442516907
-0.19225,1.028093694,3.435791719
-0.192,1.028093694,3.425703939
-0.19175,1.028093694,3.429066532
-0.1915,1.028093694,3.449242094
-0.19125,1.028093694,3.459329874
-0.191,1.024735122,3.472780248
-0.19075,1.024735122,3.479505435
-0.1905,1.021376549,3.496318403
-0.19025,1.018017977,3.540032119
-0.19,1.011300831,3.607283989
-0.18975,1.011300831,3.62745955
-0.1895,1.011300831,3.644272518
-0.18925,1.011300831,3.661085485
-0.189,1.011300831,3.667810672
-0.18875,1.011300831,3.681261047
-0.1885,1.011300831,3.694711421
-0.18825,1.011300831,3.704799201
-0.188,1.011300831,3.718249575
-0.18775,1.011300831,3.724974762
-0.1875,1.011300831,3.745150323
-0.18725,1.011300831,3.758600697
-0.187,1.011300831,3.765325885
-0.18675,1.011300831,3.768688478
-0.1865,1.011300831,3.785501446
-0.18625,1.007942259,3.8090396
-0.186,1.004583686,3.822489974
-0.18575,1.007942259,3.835940348
-0.1855,1.007942259,3.852753316
-0.18525,1.014659404,3.849390723
-0.185,1.021376549,3.849390723
-0.18475,1.024735122,3.846028129
-0.1845,1.024735122,3.835940348
-0.18425,1.028093694,3.822489974
-0.184,1.031452267,3.819127381
-0.18375,1.031452267,3.8090396
-0.1835,1.031452267,3.8090396
-0.18325,1.034810839,3.825852568
-0.183,1.031452267,3.842665536
-0.18275,1.034810839,3.852753316
-0.1825,1.041527984,3.852753316
-0.18225,1.041527984,3.86620369
-0.182,1.044886557,3.886379251
-0.18175,1.041527984,3.953631122
-0.1815,1.038169412,4.004070025
-0.18125,1.041527984,4.017520399
-0.181,1.041527984,4.030970773
-0.18075,1.041527984,4.044421147
-0.1805,1.041527984,4.054508927
-0.18025,1.038169412,4.071321895
-0.18,1.038169412,4.088134863
-0.17975,1.038169412,4.10494783
-0.1795,1.041527984,4.121760798
-0.17925,1.041527984,4.131848578
-0.179,1.041527984,4.145298952
-0.17875,1.041527984,4.158749326
-0.1785,1.038169412,4.172199701
-0.17825,1.038169412,4.185650075
-0.178,1.038169412,4.202463042
-0.17775,1.034810839,4.21927601
-0.1775,1.034810839,4.22936379
-0.17725,1.038169412,4.236088977
-0.177,1.034810839,4.252901945
-0.17675,1.031452267,4.2764401
-0.1765,1.031452267,4.28652788
-0.17625,1.028093694,4.28652788
-0.176,1.028093694,4.28652788
-0.17575,1.028093694,4.279802693
-0.1755,1.028093694,4.269714913
-0.17525,1.031452267,4.273077506
-0.175,1.028093694,4.28652788
-0.17475,1.028093694,4.296615661
-0.1745,1.028093694,4.306703441
-0.17425,1.024735122,4.323516409
-0.174,1.024735122,4.33360419
-0.17375,1.021376549,4.357142344
-0.1735,1.018017977,4.410943841
-0.17325,1.011300831,4.481558305
-0.173,1.011300831,4.498371272
-0.17275,1.011300831,4.511821646
-0.1725,1.011300831,4.521909427
-0.17225,1.011300831,4.535359801
-0.172,1.011300831,4.552172768
-0.17175,1.011300831,4.565623143
-0.1715,1.011300831,4.579073517
-0.17125,1.011300831,4.589161297
-0.171,1.011300831,4.602611671
-0.17075,1.011300831,4.616062045
-0.1705,1.011300831,4.626149826
-0.17025,1.011300831,4.6396002
-0.17,1.011300831,4.649687981
-0.16975,1.011300831,4.659775761
-0.1695,1.007942259,4.679951322
-0.16925,1.007942259,4.700126883
-0.169,1.007942259,4.713577257
-0.16875,1.011300831,4.730390225
-0.1685,1.018017977,4.730390225
-0.16825,1.021376549,4.727027632
-0.168,1.024735122,4.723665038
-0.16775,1.028093694,4.713577257
-0.1675,1.028093694,4.703489477
-0.16725,1.031452267,4.690039103
-0.167,1.034810839,4.676588729
-0.16675,1.034810839,4.679951322
-0.1665,1.034810839,4.690039103
-0.16625,1.034810839,4.703489477
-0.166,1.038169412,4.710214664
-0.16575,1.041527984,4.716939851
-0.1655,1.041527984,4.733752819
-0.16525,1.041527984,4.774103941
-0.165,1.038169412,4.844718405
-0.16475,1.041527984,4.87834434
-0.1645,1.041527984,4.888432121
-0.16425,1.041527984,4.901882495
-0.164,1.041527984,4.911970275
-0.16375,1.041527984,4.918695462
-0.1635,1.038169412,4.932145836
-0.16325,1.038169412,4.942233617
-0.163,1.038169412,4.959046584
-0.16275,1.038169412,4.989309926
-0.1625,1.041527984,4.999397707
-0.16225,1.041527984,5.009485487
-0.162,1.038169412,5.022935861
-0.16175,1.038169412,5.036386235
-0.1615,1.038169412,5.046474016
-0.16125,1.034810839,5.063286984
-0.161,1.034810839,5.073374764
-0.16075,1.038169412,5.070012171
-0.1605,1.038169412,5.073374764
-0.16025,1.031452267,5.100275512
-0.16,1.031452267,5.120451073
-0.15975,1.031452267,5.127176261
-0.1595,1.031452267,5.123813667
-0.15925,1.028093694,5.11708848
-0.159,1.028093694,5.107000699
-0.15875,1.028093694,5.103638106
-0.1585,1.031452267,5.11708848
-0.15825,1.028093694,5.133901448
-0.158,1.028093694,5.150714415
-0.15775,1.028093694,5.157439602
-0.1575,1.021376549,5.167527383
-0.15725,1.024735122,5.180977757
-0.157,1.018017977,5.207878505
-0.15675,1.014659404,5.275130375
-0.1565,1.011300831,5.322206685
-0.15625,1.011300831,5.335657059
-0.156,1.011300831,5.359195213
-0.15575,1.011300831,5.372645588
-0.1555,1.011300831,5.386095962
-0.15525,1.007942259,5.396183742
-0.155,1.011300831,5.409634116
-0.15475,1.011300831,5.42308449
-0.1545,1.011300831,5.433172271
-0.15425,1.011300831,5.446622645
-0.154,1.011300831,5.456710426
-0.15375,1.011300831,5.4701608
-0.1535,1.011300831,5.486973767
-0.15325,1.011300831,5.507149328
-0.153,1.007942259,5.52732489
-0.15275,1.004583686,5.547500451
-0.1525,1.007942259,5.560950825
-0.15225,1.007942259,5.574401199
-0.152,1.011300831,5.581126386
-0.15175,1.018017977,5.574401199
-0.1515,1.024735122,5.574401199
-0.15125,1.024735122,5.567676012
-0.151,1.028093694,5.557588231
-0.15075,1.031452267,5.540775264
-0.1505,1.031452267,5.530687483
-0.15025,1.031452267,5.523962296
-0.15,1.031452267,5.540775264
-0.14975,1.031452267,5.560950825
-0.1495,1.034810839,5.574401199
-0.14925,1.038169412,5.571038605
-0.149,1.038169412,5.581126386
-0.14875,1.044886557,5.587851573
-0.1485,1.041527984,5.645015663
-0.14825,1.038169412,5.715630127
-0.148,1.038169412,5.739168281
-0.14775,1.038169412,5.749256062
-0.1475,1.038169412,5.76606903
-0.14725,1.041527984,5.77615681
-0.147,1.038169412,5.789607184
-0.14675,1.038169412,5.806420152
-0.1465,1.038169412,5.826595713
-0.14625,1.038169412,5.843408681
-0.146,1.041527984,5.853496461
-0.14575,1.038169412,5.860221648
-0.1455,1.038169412,5.870309429
-0.14525,1.038169412,5.893847583
-0.145,1.038169412,5.910660551
-0.14475,1.038169412,5.927473519
-0.1445,1.034810839,5.937561299
-0.14425,1.034810839,5.94764908
-0.144,1.038169412,5.951011673
-0.14375,1.038169412,5.964462047
-0.1435,1.031452267,6.001450576
-0.14325,1.031452267,6.018263544
-0.143,1.028093694,6.024988731
-0.14275,1.028093694,6.018263544
-0.1425,1.028093694,6.011538357
-0.14225,1.028093694,6.001450576
-0.142,1.031452267,5.994725389
-0.14175,1.028093694,6.011538357
-0.1415,1.028093694,6.031713918
-0.14125,1.028093694,6.045164292
-0.141,1.024735122,6.061977259
-0.14075,1.024735122,6.07206504
-0.1405,1.021376549,6.085515414
-0.14025,1.018017977,6.12922913
-0.14,1.011300831,6.196481
-0.13975,1.011300831,6.226744342
-0.1395,1.011300831,6.25364509
-0.13925,1.011300831,6.270458058
-0.139,1.011300831,6.283908432
-0.13875,1.011300831,6.297358806
-0.1385,1.011300831,6.307446586
-0.13825,1.011300831,6.317534367
-0.138,1.011300831,6.324259554
-0.13775,1.011300831,6.334347335
-0.1375,1.007942259,6.351160302
-0.13725,1.011300831,6.371335863
-0.137,1.011300831,6.384786237
-0.13675,1.011300831,6.401599205
-0.1365,1.011300831,6.415049579
-0.13625,1.004583686,6.438587734
-0.136,1.004583686,6.452038108
-0.13575,1.007942259,6.465488482
-0.1355,1.007942259,6.478938856
-0.13525,1.014659404,6.48230145
-0.135,1.021376549,6.485664043
-0.13475,1.024735122,6.495751824
-0.1345,1.028093694,6.489026637
-0.13425,1.028093694,6.478938856
-0.134,1.031452267,6.465488482
-0.13375,1.031452267,6.452038108
-0.1335,1.031452267,6.448675514
-0.13325,1.031452267,6.458763295
-0.133,1.034810839,6.472213669
-0.13275,1.034810839,6.48230145
-0.1325,1.041527984,6.478938856
-0.13225,1.041527984,6.495751824
-0.132,1.041527984,6.526015165
-0.13175,1.041527984,6.589904442
-0.1315,1.038169412,6.657156313
-0.13125,1.038169412,6.67396928
-0.131,1.038169412,6.687419654
-0.13075,1.038169412,6.700870028
-0.1305,1.038169412,6.714320402
-0.13025,1.038169412,6.727770777
-0.13,1.038169412,6.741221151
-0.12975,1.038169412,6.751308931
-0.1295,1.041527984,6.761396712
-0.12925,1.038169412,6.774847086
-0.129,1.038169412,6.78829746
-0.12875,1.038169412,6.801747834
-0.1285,1.038169412,6.811835615
-0.12825,1.038169412,6.821923395
-0.128,1.038169412,6.842098956
-0.12775,1.034810839,6.865637111
-0.1275,1.034810839,6.882450078
-0.12725,1.038169412,6.889175266
-0.127,1.034810839,6.905988233
-0.12675,1.028093694,6.926163794
-0.1265,1.031452267,6.932888981
-0.12625,1.028093694,6.932888981
-0.126,1.028093694,6.932888981
-0.12575,1.028093694,6.926163794
-0.1255,1.028093694,6.919438607
-0.12525,1.028093694,6.926163794
-0.125,1.031452267,6.942976762
-0.12475,1.028093694,6.953064542
-0.1245,1.028093694,6.966514917
-0.12425,1.021376549,6.983327884
-0.124,1.024735122,6.990053071
-0.12375,1.018017977,7.016953819
-0.1235,1.018017977,7.08420569
-0.12325,1.011300831,7.15145756
-0.123,1.011300831,7.168270528
-0.12275,1.011300831,7.185083495
-0.1225,1.011300831,7.195171276
-0.12225,1.011300831,7.205259057
-0.122,1.011300831,7.215346837
-0.12175,1.011300831,7.232159805
-0.1215,1.007942259,7.245610179
-0.12125,1.007942259,7.262423146
-0.121,1.007942259,7.285961301
-0.12075,1.011300831,7.299411675
-0.1205,1.011300831,7.312862049
-0.12025,1.011300831,7.326312423
-0.12,1.011300831,7.336400204
-0.11975,1.011300831,7.349850578
-0.1195,1.007942259,7.373388733
-0.11925,1.007942259,7.383476513
-0.119,1.011300831,7.393564294
-0.11875,1.011300831,7.396926887
-0.1185,1.018017977,7.400289481
-0.11825,1.024735122,7.403652074
-0.118,1.028093694,7.410377261
-0.11775,1.028093694,7.413739855
-0.1175,1.031452267,7.400289481
-0.11725,1.031452267,7.393564294
-0.117,1.031452267,7.3902017
-0.11675,1.034810839,7.393564294
-0.1165,1.034810839,7.403652074
-0.11625,1.034810839,7.413739855
-0.116,1.038169412,7.410377261
-0.11575,1.041527984,7.413739855
-0.1155,1.044886557,7.430552822
-0.11525,1.041527984,7.474266538
-0.115,1.038169412,7.548243596
-0.11475,1.038169412,7.581869531
-0.1145,1.038169412,7.595319905
-0.11425,1.041527984,7.605407686
-0.114,1.038169412,7.61885806
-0.11375,1.038169412,7.632308434
-0.1135,1.038169412,7.652483995
-0.11325,1.038169412,7.665934369
-0.113,1.038169412,7.679384743
-0.11275,1.038169412,7.699560304
-0.1125,1.038169412,7.723098459
-0.11225,1.038169412,7.729823646
-0.112,1.038169412,7.739911426
-0.11175,1.034810839,7.7533618
-0.1115,1.038169412,7.763449581
-0.11125,1.034810839,7.776899955
-0.111,1.034810839,7.786987736
-0.11075,1.038169412,7.80043811
-0.1105,1.041527984,7.817251077
-0.11025,1.034810839,7.840789232
-0.11,1.028093694,7.8576022
-0.10975,1.031452267,7.8576022
-0.1095,1.031452267,7.8576022
-0.10925,1.028093694,7.850877013
-0.109,1.028093694,7.844151826
-0.10875,1.028093694,7.847514419
-0.1085,1.028093694,7.860964793
-0.10825,1.031452267,7.884502948
-0.108,1.028093694,7.894590728
-0.10775,1.028093694,7.908041102
-0.1075,1.024735122,7.921491476
-0.10725,1.021376549,7.938304444
-0.107,1.018017977,7.975292973
-0.10675,1.014659404,8.04927003
-0.1065,1.011300831,8.09634634
-0.10625,1.011300831,8.10643412
-0.106,1.011300831,8.119884494
-0.10575,1.011300831,8.146785242
-0.1055,1.011300831,8.160235616
-0.10525,1.011300831,8.170323397
-0.105,1.011300831,8.183773771
-0.10475,1.011300831,8.197224145
-0.1045,1.011300831,8.210674519
-0.10425,1.011300831,8.227487487
-0.104,1.011300831,8.240937861
-0.10375,1.011300831,8.254388235
-0.1035,1.011300831,8.261113422
-0.10325,1.011300831,8.271201203
-0.103,1.011300831,8.281288983
-0.10275,1.004583686,8.304827138
-0.1025,1.007942259,8.321640105
-0.10225,1.007942259,8.338453073
-0.102,1.011300831,8.355266041
-0.10175,1.018017977,8.361991228
-0.1015,1.021376549,8.358628634
-0.10125,1.024735122,8.351903447
-0.101,1.028093694,8.341815667
-0.10075,1.031452267,8.328365293
-0.1005,1.031452267,8.318277512
-0.10025,1.034810839,8.314914918
-0.1,1.034810839,8.328365293
-0.09975,1.034810839,8.348540854
-0.0995,1.034810839,8.361991228
-0.09925,1.041527984,8.365353821
-0.099,1.038169412,8.375441602
-0.09875,1.044886557,8.392254569
-0.0985,1.041527984,8.456143846
-0.09825,1.038169412,8.51667053
-0.098,1.038169412,8.533483497
-0.09775,1.038169412,8.543571278
-0.0975,1.038169412,8.553659058
-0.09725,1.038169412,8.563746839
-0.097,1.038169412,8.580559807
-0.09675,1.038169412,8.600735368
-0.0965,1.038169412,8.620910929
-0.09625,1.038169412,8.64108649
-0.096,1.038169412,8.657899458
-0.09575,1.038169412,8.664624645
-0.0955,1.038169412,8.674712425
-0.09525,1.038169412,8.688162799
-0.095,1.038169412,8.69825058
-0.09475,1.038169412,8.711700954
-0.0945,1.038169412,8.725151328
-0.09425,1.038169412,8.738601702
-0.094,1.041527984,8.741964296
-0.09375,1.041527984,8.762139857
-0.0935,1.031452267,8.789040605
-0.09325,1.031452267,8.802490979
-0.093,1.031452267,8.805853573
-0.09275,1.028093694,8.805853573
-0.0925,1.031452267,8.799128385
-0.09225,1.028093694,8.792403198
-0.092,1.031452267,8.799128385
-0.09175,1.028093694,8.815941353
-0.0915,1.028093694,8.832754321
-0.09125,1.028093694,8.856292475
-0.091,1.024735122,8.883193223
-0.09075,1.024735122,8.896643598
-0.0905,1.021376549,8.913456565
-0.09025,1.018017977,8.960532874
-0.09,1.011300831,9.031147338
-0.08975,1.011300831,9.0513229
-0.0895,1.011300831,9.058048087
-0.08925,1.011300831,9.071498461
-0.089,1.011300831,9.084948835
-0.08875,1.011300831,9.095036615
-0.0885,1.011300831,9.115212176
-0.08825,1.011300831,9.142112925
-0.088,1.011300831,9.158925892
-0.08775,1.011300831,9.172376266
-0.0875,1.011300831,9.192551827
-0.08725,1.011300831,9.202639608
-0.087,1.011300831,9.219452576
-0.08675,1.014659404,9.229540356
-0.0865,1.011300831,9.246353324
-0.08625,1.007942259,9.266528885
-0.086,1.004583686,9.283341852
-0.08575,1.007942259,9.293429633
-0.0855,1.007942259,9.310242601
-0.08525,1.014659404,9.310242601
-0.085,1.021376549,9.313605194
-0.08475,1.024735122,9.313605194
-0.0845,1.028093694,9.323692975
-0.08425,1.028093694,9.313605194
-0.084,1.031452267,9.303517414
-0.08375,1.034810839,9.296792227
-0.0835,1.034810839,9.30015482
-0.08325,1.034810839,9.313605194
-0.083,1.034810839,9.327055568
-0.08275,1.038169412,9.330418162
-0.0825,1.041527984,9.340505942
-0.08225,1.041527984,9.35731891
-0.082,1.044886557,9.380857065
-0.08175,1.041527984,9.451471529
-0.0815,1.038169412,9.508635618
-0.08125,1.038169412,9.518723399
-0.081,1.038169412,9.535536367
-0.08075,1.041527984,9.552349334
-0.0805,1.038169412,9.569162302
-0.08025,1.038169412,9.592700456
-0.08,1.041527984,9.602788237
-0.07975,1.038169412,9.616238611
-0.0795,1.038169412,9.629688985
-0.07925,1.041527984,9.643139359
-0.079,1.038169412,9.656589733
-0.07875,1.038169412,9.670040107
-0.0785,1.038169412,9.690215669
-0.07825,1.038169412,9.71039123
-0.078,1.038169412,9.740654571
-0.07775,1.034810839,9.754104945
-0.0775,1.038169412,9.760830132
-0.07725,1.041527984,9.764192726
-0.077,1.038169412,9.781005694
-0.07675,1.031452267,9.801181255
-0.0765,1.031452267,9.804543848
-0.07625,1.031452267,9.791093474
-0.076,1.031452267,9.797818661
-0.07575,1.028093694,9.794456068
-0.0755,1.031452267,9.794456068
-0.07525,1.031452267,9.807906442
-0.075,1.031452267,9.838169783
-0.07475,1.031452267,9.848257564
-0.0745,1.028093694,9.858345345
-0.07425,1.024735122,9.871795719
-0.074,1.024735122,9.871795719
-0.07375,1.021376549,9.90205906
-0.0735,1.018017977,9.965948337
-0.07325,1.014659404,10.03320021
-0.073,1.011300831,10.05337577
-0.07275,1.011300831,10.06682614
-0.0725,1.011300831,10.08363911
-0.07225,1.011300831,10.10045208
-0.072,1.011300831,10.11390245
-0.07175,1.011300831,10.12735283
-0.0715,1.011300831,10.14416579
-0.07125,1.011300831,10.15425357
-0.071,1.007942259,10.17106654
-0.07075,1.007942259,10.18451692
-0.0705,1.011300831,10.1912421
-0.07025,1.011300831,10.20132988
-0.07,1.011300831,10.21141766
-0.06975,1.007942259,10.22823063
-0.0695,1.004583686,10.2450436
-0.06925,1.007942259,10.25513138
-0.069,1.007942259,10.26858175
-0.06875,1.011300831,10.28203213
-0.0685,1.018017977,10.28539472
-0.06825,1.021376549,10.29211991
-0.068,1.024735122,10.28875732
-0.06775,1.024735122,10.28539472
-0.0675,1.028093694,10.26858175
-0.06725,1.031452267,10.25513138
-0.067,1.031452267,10.24840619
-0.06675,1.031452267,10.25513138
-0.0665,1.031452267,10.26858175
-0.06625,1.034810839,10.27866953
-0.066,1.038169412,10.27866953
-0.06575,1.041527984,10.28539472
-0.0655,1.041527984,10.30557028
-0.06525,1.041527984,10.35264659
-0.065,1.038169412,10.42326106
-0.06475,1.038169412,10.4535244
-0.0645,1.038169412,10.46361218
-0.06425,1.038169412,10.46697477
-0.064,1.038169412,10.47706255
-0.06375,1.038169412,10.49051293
-0.0635,1.038169412,10.50732589
-0.06325,1.038169412,10.52077627
-0.063,1.038169412,10.53422664
-0.06275,1.038169412,10.54767702
-0.0625,1.038169412,10.5544022
-0.06225,1.038169412,10.57121517
-0.062,1.038169412,10.59475333
-0.06175,1.038169412,10.61156629
-0.0615,1.038169412,10.62501667
-0.06125,1.034810839,10.63846704
-0.061,1.034810839,10.64855482
-0.06075,1.038169412,10.6586426
-0.0605,1.038169412,10.66536779
-0.06025,1.031452267,10.68890594
-0.06,1.028093694,10.70571891
-0.05975,1.031452267,10.7124441
-0.0595,1.031452267,10.7124441
-0.05925,1.028093694,10.70235632
-0.059,1.028093694,10.69563113
-0.05875,1.028093694,10.68554335
-0.0585,1.028093694,10.69226854
-0.05825,1.028093694,10.70908151
-0.058,1.028093694,10.72253188
-0.05775,1.028093694,10.73598225
-0.0575,1.021376549,10.75279522
-0.05725,1.021376549,10.75952041
-0.057,1.018017977,10.79650894
-0.05675,1.014659404,10.8671234
-0.0565,1.011300831,10.9175623
-0.05625,1.011300831,10.93101268
-0.056,1.011300831,10.93773786
-0.05575,1.011300831,10.95118824
-0.0555,1.011300831,10.96800121
-0.05525,1.011300831,10.99153936
-0.055,1.011300831,11.00162714
-0.05475,1.011300831,11.01171492
-0.0545,1.011300831,11.0218027
-0.05425,1.007942259,11.03525308
-0.054,1.011300831,11.04870345
-0.05375,1.011300831,11.05879123
-0.0535,1.011300831,11.06887901
-0.05325,1.011300831,11.07896679
-0.053,1.007942259,11.09241717
-0.05275,1.004583686,11.10586754
-0.0525,1.007942259,11.11595532
-0.05225,1.007942259,11.1260431
-0.052,1.011300831,11.13613088
-0.05175,1.021376549,11.13613088
-0.0515,1.024735122,11.13949348
-0.05125,1.024735122,11.13949348
-0.051,1.028093694,11.1260431
-0.05075,1.031452267,11.10923013
-0.0505,1.031452267,11.09914235
-0.05025,1.031452267,11.10250495
-0.05,1.031452267,11.11595532
-0.04975,1.031452267,11.1294057
-0.0495,1.034810839,11.13949348
-0.04925,1.041527984,11.14285607
-0.049,1.041527984,11.15294385
-0.04875,1.044886557,11.16303163
-0.0485,1.041527984,11.22355831
-0.04825,1.038169412,11.29417278
-0.048,1.038169412,11.31434834
-0.04775,1.038169412,11.32443612
